{
  "project_info": {
    "project_number": "60514197119",
    "firebase_url": "https://mercuryconsumer.firebaseio.com",
    "project_id": "mercuryconsumer",
    "storage_bucket": "mercuryconsumer.appspot.com"
  },
  "client": [
    {
      "client_info": {
        "mobilesdk_app_id": "1:60514197119:android:d39ec8c5c4c1ff54",
        "android_client_info": {
          "package_name": "in.intellifox.mwallet"
        }
      },
      "oauth_client": [
        {
          "client_id": "60514197119-fh80pdj1d140q18h9stk3fk9cm9selk4.apps.googleusercontent.com",
          "client_type": 3
        }
      ],
      "api_key": [
        {
          "current_key": "AIzaSyDfcUGE21iEdWHhQBeGecUullSq-q3dLnw"
        }
      ],
      "services": {
        "analytics_service": {
          "status": 1
        },
        "appinvite_service": {
          "status": 1,
          "other_platform_oauth_client": []
        },
        "ads_service": {
          "status": 2
        }
      }
    }
  ],
  "configuration_version": "1"
}